<svg width="1247" height="1024" viewBox="0 0 1247 1024" fill="none" xmlns="http://www.w3.org/2000/svg">
<path d="M667.052 0L170 333L4 245L465.2 175.173L683.2 542.116L408.681 344.815L1246 587L294 787L514 681L272 651L514 1027V1039" stroke="#ACFF0D" stroke-width="2"/>
</svg>
